[
  {
    "_id": {
      "$oid": "631b8d15e9e304003c04dc46"
    },
    "chat": "6282331c813801dceb790d91",
    "players": [
      {
        "user": "631ed3062d01daa09a083ce7",
        "score": []
      }
    ],
    "status": "created",
    "numberOfRounds": 5,
    "createdAt": {
      "$date": "2022-05-16T11:18:52.989Z"
    },
    "createdBy": "631ed3062d01daa09a083ce7",
    "deleted": false
  },
  {
    "_id": {
      "$oid": "631b8d15e9e304003c04dc47"
    },
    "chat": "6282331c813801dceb790d91",
    "players": [
      {
        "user": "631ed3062d01daa09a083ce7",
        "score": []
      },
      {
        "user": "631ed3062d01daa09a083ce9",
        "score": []
      }
    ],
    "status": "started",
    "numberOfRounds": 5,
    "createdAt": {
      "$date": {
        "$numberLong": "1652699932989"
      }
    },
    "createdBy": "631ed3062d01daa09a083ce7",
    "deleted": false,
    "deck": [
      34,
      42,
      29,
      19,
      11,
      6,
      40,
      25,
      37,
      20,
      24,
      0,
      13,
      36,
      49,
      47,
      51,
      16,
      8,
      1,
      14,
      27,
      38,
      17,
      4,
      2,
      3,
      33,
      15,
      22,
      23,
      18,
      7,
      35,
      10,
      48,
      41,
      31,
      50,
      28,
      26,
      44,
      21,
      5,
      45,
      9,
      32,
      12,
      43,
      39,
      46,
      30
    ],
    "events": [],
    "updatedAt": {
      "$date": {
        "$numberLong": "1662796620911"
      }
    }
  },
  {
    "_id": {
      "$oid": "631b8d15e9e304003c04dc48"
    },
    "chat": "6282331c813801dceb790d91",
    "players": [
      {
        "user": "631ed3062d01daa09a083ce7",
        "score": [
          22
        ]
      },
      {
        "user": "631ed3062d01daa09a083ce9",
        "score": [
          19
        ]
      }
    ],
    "status": "started",
    "numberOfRounds": 5,
    "createdAt": {
      "$date": {
        "$numberLong": "1652699932989"
      }
    },
    "createdBy": "631ed3062d01daa09a083ce7",
    "deleted": false,
    "deck": [
      33,
      51,
      45,
      17,
      35,
      4,
      12,
      49,
      26,
      19,
      10,
      13,
      34,
      9,
      30,
      3,
      20,
      7,
      2,
      36,
      6,
      1,
      16,
      42,
      37,
      27,
      15,
      50,
      40,
      41,
      0,
      43,
      29,
      48,
      22,
      44,
      32,
      18,
      39,
      24,
      28,
      31,
      38,
      5,
      8,
      11,
      23,
      25,
      47,
      21,
      14,
      46
    ],
    "events": [
      {
        "action": "last_winner",
        "player": "b"
      },
      {
        "action": "start",
        "player": "a"
      },
      {
        "action": "start",
        "player": "b"
      },
      {
        "action": "pick_cards",
        "spots": [
          1,
          2
        ],
        "player": "b"
      },
      {
        "action": "pick_cards",
        "spots": [
          1,
          2
        ],
        "player": "a"
      },
      {
        "action": "pickup",
        "pile": "PICKUP",
        "player": "b"
      },
      {
        "action": "discard",
        "player": "b"
      },
      {
        "action": "reveal",
        "spot": 1,
        "player": "b"
      },
      {
        "action": "pickup",
        "pile": "PICKUP",
        "player": "a"
      },
      {
        "action": "discard",
        "player": "a"
      },
      {
        "action": "reveal",
        "spot": 0,
        "player": "a"
      },
      {
        "action": "pickup",
        "pile": "PICKUP",
        "player": "b"
      },
      {
        "action": "place",
        "spot": 3,
        "player": "b"
      },
      {
        "action": "pickup",
        "pile": "PICKUP",
        "player": "a"
      },
      {
        "action": "discard",
        "player": "a"
      },
      {
        "action": "reveal",
        "spot": 3,
        "player": "a"
      },
      {
        "action": "pickup",
        "pile": "PICKUP",
        "player": "b"
      },
      {
        "action": "discard",
        "player": "b"
      },
      {
        "action": "reveal",
        "spot": 2,
        "player": "b"
      },
      {
        "action": "pickup",
        "pile": "DISCARD",
        "player": "a"
      },
      {
        "action": "place",
        "spot": 1,
        "player": "a"
      },
      {
        "action": "pickup",
        "pile": "PICKUP",
        "player": "b"
      },
      {
        "action": "discard",
        "player": "b"
      },
      {
        "action": "reveal",
        "spot": 0,
        "player": "b"
      },
      {
        "action": "pickup",
        "pile": "PICKUP",
        "player": "a"
      },
      {
        "action": "discard",
        "player": "a"
      },
      {
        "action": "reveal",
        "spot": 2,
        "player": "a"
      }
    ],
    "updatedAt": {
      "$date": {
        "$numberLong": "1662966128776"
      }
    }
  }
]